<?xml version="1.0" encoding="UTF-8"?>
<svg width="128px" height="128px" viewBox="0 0 128 128" version="1.1" xmlns="http://www.w3.org/2000/svg" xmlns:xlink="http://www.w3.org/1999/xlink">
    <!-- Generator: sketchtool 58 (101010) - https://sketch.com -->
    <title>7B652CF4-7CB9-4F39-AFBD-4F2B7DD92FA0</title>
    <desc>Created with sketchtool.</desc>
    <defs>
        <circle id="path-1" cx="60" cy="60" r="60"></circle>
        <filter x="-4.6%" y="-3.8%" width="112.5%" height="112.5%" filterUnits="objectBoundingBox" id="filter-2">
            <feOffset dx="2" dy="3" in="SourceAlpha" result="shadowOffsetOuter1"></feOffset>
            <feGaussianBlur stdDeviation="2" in="shadowOffsetOuter1" result="shadowBlurOuter1"></feGaussianBlur>
            <feColorMatrix values="0 0 0 0 0.48627451   0 0 0 0 0.647058824   0 0 0 0 0.917647059  0 0 0 0.330638112 0" type="matrix" in="shadowBlurOuter1"></feColorMatrix>
        </filter>
    </defs>
    <g id="Desktop" stroke="none" stroke-width="1" fill="none" fill-rule="evenodd">
        <g id="Services-webApps" transform="translate(-658.000000, -2123.000000)">
            <g id="Group-2" transform="translate(0.000000, 1441.000000)">
                <g id="Group-16-Copy" transform="translate(637.000000, 683.000000)">
                    <g id="CMS" transform="translate(23.000000, 0.000000)">
                        <g id="Oval-Copy-7">
                            <use fill="black" fill-opacity="1" filter="url(#filter-2)" xlink:href="#path-1"></use>
                            <use fill="#FFFFFF" fill-rule="evenodd" xlink:href="#path-1"></use>
                        </g>
                        <g id="cms" transform="translate(34.000000, 30.000000)" fill="#3B61C4" fill-rule="nonzero">
                            <path d="M7.5,58.125 L7.5,60 L1.875,60 L1.875,58.125 L7.5,58.125 Z M31.875,58.125 L31.875,60 L26.25,60 L26.25,58.125 L31.875,58.125 Z M33.75,0 L33.75,16.875 L47.3963929,16.875 C48.0241394,15.7829284 49.156562,15.0848798 50.4037888,15.0072188 L50.625,15 L60,15 L60,45 C60,47.0041189 58.4275032,48.6412647 56.4491454,48.7448016 L56.25,48.75 L33.75,48.75 L33.75,56.25 L0,56.25 L0,0 L33.75,0 Z M31.875,48.75 L1.875,48.75 L1.875,54.375 L31.875,54.375 L31.875,48.75 Z M30,50.625 L30,52.5 L18.75,52.5 L18.75,50.625 L30,50.625 Z M9.375,50.625 L9.375,52.5 L7.5,52.5 L7.5,50.625 L9.375,50.625 Z M13.125,50.625 L13.125,52.5 L11.25,52.5 L11.25,50.625 L13.125,50.625 Z M16.875,50.625 L16.875,52.5 L15,52.5 L15,50.625 L16.875,50.625 Z M5.625,50.625 L5.625,52.5 L3.75,52.5 L3.75,50.625 L5.625,50.625 Z M58.125,16.875 L50.625,16.875 C49.6388462,16.875 48.8304003,17.6364862 48.7556416,18.6034792 L48.75,18.75 L48.75,22.5 L22.5,22.5 L22.5,45 C22.4977112,45.2261353 22.474823,45.4513549 22.4313354,45.6729127 C22.4221802,45.726471 22.4116516,45.7791138 22.3997497,45.8326721 C22.3535156,46.0441589 22.288971,46.2515259 22.2065735,46.4520264 C22.2019958,46.4634704 22.1905518,46.4735413 22.1905518,46.4849854 L22.0991707,46.6827393 L21.99646,46.875 L56.25,46.875 C57.2361538,46.875 58.0445997,46.1135138 58.1193584,45.1465208 L58.125,45 L58.125,16.875 Z M15,41.25 L1.875,41.25 L1.875,46.875 L15.5213929,46.875 C15.2261924,46.3783264 15.0512051,45.8206701 15.0096175,45.2468043 L15,45 L15,41.25 Z M46.875,18.75 L16.875,18.75 L16.875,45 C16.875,46.0354615 17.7145385,46.875 18.75,46.875 C19.7361538,46.875 20.5445997,46.1135138 20.6193584,45.1465208 L20.625,45 L20.625,20.625 L46.875,20.625 L46.875,18.75 Z M9.375,43.125 L9.375,45 L7.5,45 L7.5,43.125 L9.375,43.125 Z M13.125,43.125 L13.125,45 L11.25,45 L11.25,43.125 L13.125,43.125 Z M5.625,43.125 L5.625,45 L3.75,45 L3.75,43.125 L5.625,43.125 Z M15,33.75 L1.875,33.75 L1.875,39.375 L15,39.375 L15,33.75 Z M54.375,30 L54.375,31.875 L49.6875,31.875 C49.1697693,31.875 48.75,32.2947693 48.75,32.8125 C48.75,33.3302307 49.1697693,33.75 49.6875,33.75 L51.5625,33.75 C53.1156921,33.75 54.375,35.0093079 54.375,36.5625 C54.375,38.1156921 53.1156921,39.375 51.5625,39.375 L46.875,39.375 L46.875,37.5 L51.5625,37.5 C52.0802307,37.5 52.5,37.0802307 52.5,36.5625 C52.5,36.0447693 52.0802307,35.625 51.5625,35.625 L49.6875,35.625 C48.1343079,35.625 46.875,34.3656921 46.875,32.8125 C46.875,31.2593079 48.1343079,30 49.6875,30 L54.375,30 Z M42.1875,30 C43.7406921,30 45,31.2593079 45,32.8125 L45,39.375 L43.125,39.375 L43.125,32.8125 C43.125,32.2947693 42.7052307,31.875 42.1875,31.875 C41.70675,31.875 41.3104668,32.2369439 41.2563078,32.7031744 L41.25,32.8125 L41.25,39.375 L39.375,39.375 L39.375,32.8125 C39.375,32.2947693 38.9552307,31.875 38.4375,31.875 C37.9197693,31.875 37.5,32.2947693 37.5,32.8125 L37.5,39.375 L35.625,39.375 L35.625,32.8125 C35.625,31.2593079 36.8843079,30 38.4375,30 C39.1582624,30 39.8157383,30.2711851 40.3134521,30.7170793 C40.8092617,30.2711851 41.4667376,30 42.1875,30 Z M33.75,30 L33.75,31.875 L30.9375,31.875 C29.3843079,31.875 28.125,33.1343079 28.125,34.6875 C28.125,36.2406921 29.3843079,37.5 30.9375,37.5 L33.75,37.5 L33.75,39.375 L30.9375,39.375 C28.3488464,39.375 26.25,37.2761536 26.25,34.6875 C26.25,32.0988464 28.3488464,30 30.9375,30 L33.75,30 Z M5.625,35.625 L5.625,37.5 L3.75,37.5 L3.75,35.625 L5.625,35.625 Z M13.125,35.625 L13.125,37.5 L11.25,37.5 L11.25,35.625 L13.125,35.625 Z M9.375,35.625 L9.375,37.5 L7.5,37.5 L7.5,35.625 L9.375,35.625 Z M15,26.25 L1.875,26.25 L1.875,31.875 L15,31.875 L15,26.25 Z M13.125,28.125 L13.125,30 L11.25,30 L11.25,28.125 L13.125,28.125 Z M5.625,28.125 L5.625,30 L3.75,30 L3.75,28.125 L5.625,28.125 Z M9.375,28.125 L9.375,30 L7.5,30 L7.5,28.125 L9.375,28.125 Z M15,18.75 L1.875,18.75 L1.875,24.375 L15,24.375 L15,18.75 Z M9.375,20.625 L9.375,22.5 L7.5,22.5 L7.5,20.625 L9.375,20.625 Z M13.125,20.625 L13.125,22.5 L11.25,22.5 L11.25,20.625 L13.125,20.625 Z M5.625,20.625 L5.625,22.5 L3.75,22.5 L3.75,20.625 L5.625,20.625 Z M31.875,11.25 L1.875,11.25 L1.875,16.875 L31.875,16.875 L31.875,11.25 Z M13.125,13.125 L13.125,15 L11.25,15 L11.25,13.125 L13.125,13.125 Z M16.875,13.125 L16.875,15 L15,15 L15,13.125 L16.875,13.125 Z M9.375,13.125 L9.375,15 L7.5,15 L7.5,13.125 L9.375,13.125 Z M5.625,13.125 L5.625,15 L3.75,15 L3.75,13.125 L5.625,13.125 Z M28.125,13.125 L28.125,15 L18.75,15 L18.75,13.125 L28.125,13.125 Z M31.875,1.875 L1.875,1.875 L1.875,3.75 L3.75,3.75 L3.75,5.625 L1.875,5.625 L1.875,9.375 L31.875,9.375 L31.875,5.625 L30,5.625 L30,3.75 L31.875,3.75 L31.875,1.875 Z M28.125,3.75 L28.125,5.625 L5.625,5.625 L5.625,3.75 L28.125,3.75 Z" id="Combined-Shape"></path>
                        </g>
                    </g>
                </g>
            </g>
        </g>
    </g>
</svg>