<?xml version="1.0" encoding="UTF-8"?>
<svg width="128px" height="128px" viewBox="0 0 128 128" version="1.1" xmlns="http://www.w3.org/2000/svg" xmlns:xlink="http://www.w3.org/1999/xlink">
    <!-- Generator: sketchtool 58 (101010) - https://sketch.com -->
    <title>21AC7389-E949-4CA5-A5E8-E646298F0461</title>
    <desc>Created with sketchtool.</desc>
    <defs>
        <circle id="path-1" cx="60" cy="60" r="60"></circle>
        <filter x="-4.6%" y="-3.8%" width="112.5%" height="112.5%" filterUnits="objectBoundingBox" id="filter-2">
            <feOffset dx="2" dy="3" in="SourceAlpha" result="shadowOffsetOuter1"></feOffset>
            <feGaussianBlur stdDeviation="2" in="shadowOffsetOuter1" result="shadowBlurOuter1"></feGaussianBlur>
            <feColorMatrix values="0 0 0 0 0.48627451   0 0 0 0 0.647058824   0 0 0 0 0.917647059  0 0 0 0.330638112 0" type="matrix" in="shadowBlurOuter1"></feColorMatrix>
        </filter>
    </defs>
    <g id="Desktop" stroke="none" stroke-width="1" fill="none" fill-rule="evenodd">
        <g id="Services-Blockchain" transform="translate(-295.000000, -2150.000000)">
            <g id="Group-14" transform="translate(0.000000, 1724.000000)">
                <g id="Group-2" transform="translate(235.000000, 427.000000)">
                    <g id="Decentralized" transform="translate(62.000000, 0.000000)">
                        <g id="Oval-Copy-3">
                            <use fill="black" fill-opacity="1" filter="url(#filter-2)" xlink:href="#path-1"></use>
                            <use fill="#FFFFFF" fill-rule="evenodd" xlink:href="#path-1"></use>
                        </g>
                        <g id="blockchain" transform="translate(30.000000, 30.000000)" fill="#3B61C4" fill-rule="nonzero" stroke="#3B61C4">
                            <path d="M10.6451613,3.55271368e-15 C13.3161805,0.00319946742 15.4806715,2.1676905 15.483871,4.83870968 L15.483871,4.83870968 L15.483871,15.483871 L16.4516129,15.483871 C16.986082,15.483871 17.4193548,15.9171438 17.4193548,16.4516129 L17.4193548,16.4516129 L17.4193548,31.9354839 C17.4193548,32.469953 16.986082,32.9032258 16.4516129,32.9032258 L16.4516129,32.9032258 L9.67741935,32.9032258 L9.67741935,48.3870968 L12.5806452,48.3870968 C15.2516643,48.3902962 17.4161554,50.5547873 17.4193548,53.2258065 L17.4193548,53.2258065 L21.2903226,53.2258065 C21.293522,50.5547873 23.4580131,48.3902962 26.1290323,48.3870968 L26.1290323,48.3870968 L29.0322581,48.3870968 L29.0322581,32.9032258 L22.2580645,32.9032258 C21.7235954,32.9032258 21.2903226,32.469953 21.2903226,31.9354839 L21.2903226,31.9354839 L21.2903226,16.4516129 C21.2903226,15.9171438 21.7235954,15.483871 22.2580645,15.483871 L22.2580645,15.483871 L23.2258065,15.483871 L23.2258065,4.83870968 C23.2290059,2.1676905 25.393497,0.00319946742 28.0645161,3.55271368e-15 L28.0645161,3.55271368e-15 L31.9354839,3.55271368e-15 C34.606503,0.00319946742 36.7709941,2.1676905 36.7741935,4.83870968 L36.7741935,4.83870968 L36.7741935,15.483871 L37.7419355,15.483871 C38.2764046,15.483871 38.7096774,15.9171438 38.7096774,16.4516129 L38.7096774,16.4516129 L38.7096774,31.9354839 C38.7096774,32.469953 38.2764046,32.9032258 37.7419355,32.9032258 L37.7419355,32.9032258 L30.9677419,32.9032258 L30.9677419,48.3870968 L33.8709677,48.3870968 C36.5419869,48.3902962 38.706478,50.5547873 38.7096774,53.2258065 L38.7096774,53.2258065 L42.5806452,53.2258065 C42.5838446,50.5547873 44.7483357,48.3902962 47.4193548,48.3870968 L47.4193548,48.3870968 L50.3225806,48.3870968 L50.3225806,32.9032258 L43.5483871,32.9032258 C43.013918,32.9032258 42.5806452,32.469953 42.5806452,31.9354839 L42.5806452,31.9354839 L42.5806452,16.4516129 C42.5806452,15.9171438 43.013918,15.483871 43.5483871,15.483871 L43.5483871,15.483871 L44.516129,15.483871 L44.516129,4.83870968 C44.5193285,2.1676905 46.6838195,0.00319946742 49.3548387,3.55271368e-15 L49.3548387,3.55271368e-15 L53.2258065,3.55271368e-15 C55.8968256,0.00319946742 58.0613167,2.1676905 58.0645161,4.83870968 L58.0645161,4.83870968 L58.0645161,15.483871 L59.0322581,15.483871 C59.5667272,15.483871 60,15.9171438 60,16.4516129 L60,16.4516129 L60,31.9354839 C60,32.469953 59.5667272,32.9032258 59.0322581,32.9032258 L59.0322581,32.9032258 L52.2580645,32.9032258 L52.2580645,48.3870968 L55.1612903,48.3870968 C57.8323095,48.3902962 59.9968005,50.5547873 60,53.2258065 L60,53.2258065 L60,55.1612903 C59.9968005,57.8323095 57.8323095,59.9968005 55.1612903,60 L55.1612903,60 L47.4193548,60 C44.7483357,59.9968005 42.5838446,57.8323095 42.5806452,55.1612903 L42.5806452,55.1612903 L38.7096774,55.1612903 C38.706478,57.8323095 36.5419869,59.9968005 33.8709677,60 L33.8709677,60 L26.1290323,60 C23.4580131,59.9968005 21.293522,57.8323095 21.2903226,55.1612903 L21.2903226,55.1612903 L17.4193548,55.1612903 C17.4161554,57.8323095 15.2516643,59.9968005 12.5806452,60 L12.5806452,60 L4.83870968,60 C2.1676905,59.9968005 0.00319946742,57.8323095 0,55.1612903 L0,55.1612903 L0,53.2258065 C0.00319946742,50.5547873 2.1676905,48.3902962 4.83870968,48.3870968 L4.83870968,48.3870968 L7.74193548,48.3870968 L7.74193548,32.9032258 L0.967741935,32.9032258 C0.433272823,32.9032258 0,32.469953 0,31.9354839 L0,31.9354839 L0,16.4516129 C0,15.9171438 0.433272823,15.483871 0.967741935,15.483871 L0.967741935,15.483871 L1.93548387,15.483871 L1.93548387,4.83870968 C1.93868334,2.1676905 4.10317437,0.00319946742 6.77419355,3.55271368e-15 L6.77419355,3.55271368e-15 Z M12.5806452,50.3225806 L4.83870968,50.3225806 C3.23530234,50.3225806 1.93548387,51.6223991 1.93548387,53.2258065 L1.93548387,53.2258065 L1.93548387,55.1612903 C1.93548387,56.7646977 3.23530234,58.0645161 4.83870968,58.0645161 L4.83870968,58.0645161 L12.5806452,58.0645161 C14.1840525,58.0645161 15.483871,56.7646977 15.483871,55.1612903 L15.483871,55.1612903 L12.5806452,55.1612903 C12.046176,55.1612903 11.6129032,54.7280175 11.6129032,54.1935484 C11.6129032,53.6590793 12.046176,53.2258065 12.5806452,53.2258065 L12.5806452,53.2258065 L15.483871,53.2258065 C15.483871,51.6223991 14.1840525,50.3225806 12.5806452,50.3225806 L12.5806452,50.3225806 Z M33.8709677,50.3225806 L26.1290323,50.3225806 C24.5256249,50.3225806 23.2258065,51.6223991 23.2258065,53.2258065 L23.2258065,53.2258065 L26.1290323,53.2258065 C26.6635014,53.2258065 27.0967742,53.6590793 27.0967742,54.1935484 C27.0967742,54.7280175 26.6635014,55.1612903 26.1290323,55.1612903 L26.1290323,55.1612903 L23.2258065,55.1612903 C23.2258065,56.7646977 24.5256249,58.0645161 26.1290323,58.0645161 L26.1290323,58.0645161 L33.8709677,58.0645161 C35.4743751,58.0645161 36.7741935,56.7646977 36.7741935,55.1612903 L36.7741935,55.1612903 L33.8709677,55.1612903 C33.3364986,55.1612903 32.9032258,54.7280175 32.9032258,54.1935484 C32.9032258,53.6590793 33.3364986,53.2258065 33.8709677,53.2258065 L33.8709677,53.2258065 L36.7741935,53.2258065 C36.7741935,51.6223991 35.4743751,50.3225806 33.8709677,50.3225806 L33.8709677,50.3225806 Z M55.1612903,50.3225806 L47.4193548,50.3225806 C45.8159475,50.3225806 44.516129,51.6223991 44.516129,53.2258065 L44.516129,53.2258065 L47.4193548,53.2258065 C47.953824,53.2258065 48.3870968,53.6590793 48.3870968,54.1935484 C48.3870968,54.7280175 47.953824,55.1612903 47.4193548,55.1612903 L47.4193548,55.1612903 L44.516129,55.1612903 C44.516129,56.7646977 45.8159475,58.0645161 47.4193548,58.0645161 L47.4193548,58.0645161 L55.1612903,58.0645161 C56.7646977,58.0645161 58.0645161,56.7646977 58.0645161,55.1612903 L58.0645161,55.1612903 L58.0645161,53.2258065 C58.0645161,51.6223991 56.7646977,50.3225806 55.1612903,50.3225806 L55.1612903,50.3225806 Z M51.2903226,53.2258065 C51.8247917,53.2258065 52.2580645,53.6590793 52.2580645,54.1935484 C52.2580645,54.7280175 51.8247917,55.1612903 51.2903226,55.1612903 L51.2903226,55.1612903 L50.3225806,55.1612903 C49.7881115,55.1612903 49.3548387,54.7280175 49.3548387,54.1935484 C49.3548387,53.6590793 49.7881115,53.2258065 50.3225806,53.2258065 L50.3225806,53.2258065 Z M36.7741935,17.4193548 L23.2258065,17.4193548 L23.2258065,30.9677419 L29.0322581,30.9677419 L29.0322581,27.0967742 C29.0380356,27.0399928 29.0493805,26.9839167 29.066129,26.9293548 C27.7208857,26.4723463 26.9040061,25.1089086 27.1356084,23.7071609 C27.3672106,22.3054131 28.5792479,21.277201 30,21.277201 C31.4207521,21.277201 32.6327894,22.3054131 32.8643916,23.7071609 C33.0959939,25.1089086 32.2791143,26.4723463 30.933871,26.9293548 C30.9506195,26.9839167 30.9619644,27.0399928 30.9677419,27.0967742 L30.9677419,27.0967742 L30.9677419,30.9677419 L36.7741935,30.9677419 L36.7741935,17.4193548 Z M15.483871,17.4193548 L1.93548387,17.4193548 L1.93548387,30.9677419 L7.74193548,30.9677419 L7.74193548,27.0967742 C7.74771303,27.0399928 7.7590579,26.9839167 7.77580645,26.9293548 C6.43056312,26.4723463 5.61368354,25.1089086 5.84528579,23.7071609 C6.07688805,22.3054131 7.28892534,21.277201 8.70967742,21.277201 C10.1304295,21.277201 11.3424668,22.3054131 11.574069,23.7071609 C11.8056713,25.1089086 10.9887917,26.4723463 9.64354839,26.9293548 C9.66029694,26.9839167 9.67164181,27.0399928 9.67741935,27.0967742 L9.67741935,27.0967742 L9.67741935,30.9677419 L15.483871,30.9677419 L15.483871,17.4193548 Z M58.0645161,17.4193548 L44.516129,17.4193548 L44.516129,30.9677419 L50.3225806,30.9677419 L50.3225806,27.0967742 C50.3283582,27.0399928 50.3397031,26.9839167 50.3564516,26.9293548 C49.0112083,26.4723463 48.1943287,25.1089086 48.425931,23.7071609 C48.6575332,22.3054131 49.8695705,21.277201 51.2903226,21.277201 C52.7110747,21.277201 53.923112,22.3054131 54.1547142,23.7071609 C54.3863165,25.1089086 53.5694369,26.4723463 52.2241935,26.9293548 C52.2409421,26.9839167 52.252287,27.0399928 52.2580645,27.0967742 L52.2580645,27.0967742 L52.2580645,30.9677419 L58.0645161,30.9677419 L58.0645161,17.4193548 Z M30,23.2258065 C29.4655309,23.2258065 29.0322581,23.6590793 29.0322581,24.1935484 C29.0322581,24.7280175 29.4655309,25.1612903 30,25.1612903 C30.5344691,25.1612903 30.9677419,24.7280175 30.9677419,24.1935484 C30.9677419,23.6590793 30.5344691,23.2258065 30,23.2258065 Z M8.70967742,23.2258065 C8.17520831,23.2258065 7.74193548,23.6590793 7.74193548,24.1935484 C7.74193548,24.7280175 8.17520831,25.1612903 8.70967742,25.1612903 C9.24414653,25.1612903 9.67741935,24.7280175 9.67741935,24.1935484 C9.67741935,23.6590793 9.24414653,23.2258065 8.70967742,23.2258065 Z M51.2903226,23.2258065 C50.7558535,23.2258065 50.3225806,23.6590793 50.3225806,24.1935484 C50.3225806,24.7280175 50.7558535,25.1612903 51.2903226,25.1612903 C51.8247917,25.1612903 52.2580645,24.7280175 52.2580645,24.1935484 C52.2580645,23.6590793 51.8247917,23.2258065 51.2903226,23.2258065 Z M31.9354839,1.93548387 L28.0645161,1.93548387 C26.4611088,1.93548387 25.1612903,3.23530234 25.1612903,4.83870968 L25.1612903,4.83870968 L25.1612903,15.483871 L34.8387097,15.483871 L34.8387097,4.83870968 C34.8387097,3.23530234 33.5388912,1.93548387 31.9354839,1.93548387 L31.9354839,1.93548387 Z M10.6451613,1.93548387 L6.77419355,1.93548387 C5.17078621,1.93548387 3.87096774,3.23530234 3.87096774,4.83870968 L3.87096774,4.83870968 L3.87096774,15.483871 L13.5483871,15.483871 L13.5483871,4.83870968 C13.5483871,3.23530234 12.2485686,1.93548387 10.6451613,1.93548387 L10.6451613,1.93548387 Z M53.2258065,1.93548387 L49.3548387,1.93548387 C47.7514314,1.93548387 46.4516129,3.23530234 46.4516129,4.83870968 L46.4516129,4.83870968 L46.4516129,15.483871 L56.1290323,15.483871 L56.1290323,4.83870968 C56.1290323,3.23530234 54.8292138,1.93548387 53.2258065,1.93548387 L53.2258065,1.93548387 Z" id="Combined-Shape"></path>
                        </g>
                    </g>
                </g>
            </g>
        </g>
    </g>
</svg>