<?xml version="1.0" encoding="UTF-8"?>
<svg width="152px" height="152px" viewBox="0 0 152 152" version="1.1" xmlns="http://www.w3.org/2000/svg" xmlns:xlink="http://www.w3.org/1999/xlink">
    <!-- Generator: sketchtool 58 (101010) - https://sketch.com -->
    <title>035A5C2F-3EEC-4FFA-B9CA-7F8C072A7D33</title>
    <desc>Created with sketchtool.</desc>
    <defs>
        <circle id="path-1" cx="72" cy="72" r="72"></circle>
        <filter x="-3.8%" y="-3.1%" width="110.4%" height="110.4%" filterUnits="objectBoundingBox" id="filter-2">
            <feOffset dx="2" dy="3" in="SourceAlpha" result="shadowOffsetOuter1"></feOffset>
            <feGaussianBlur stdDeviation="2" in="shadowOffsetOuter1" result="shadowBlurOuter1"></feGaussianBlur>
            <feColorMatrix values="0 0 0 0 0.48627451   0 0 0 0 0.647058824   0 0 0 0 0.917647059  0 0 0 0.330638112 0" type="matrix" in="shadowBlurOuter1"></feColorMatrix>
        </filter>
    </defs>
    <g id="Desktop" stroke="none" stroke-width="1" fill="none" fill-rule="evenodd">
        <g id="Home" transform="translate(-283.000000, -1431.000000)">
            <g id="Consult" transform="translate(285.000000, 1432.000000)">
                <g id="Oval">
                    <use fill="black" fill-opacity="1" filter="url(#filter-2)" xlink:href="#path-1"></use>
                    <use fill="#FFFFFF" fill-rule="evenodd" xlink:href="#path-1"></use>
                </g>
                <g id="advertisement" transform="translate(32.000000, 32.000000)" fill="#3B61C4" fill-rule="nonzero">
                    <path d="M57.3333333,0 C59.4745318,0.00240479251 61.2220199,1.6850809 61.3282233,3.80045416 L61.3333333,4 L61.3333333,6.66666667 L76,6.66666667 C78.1411985,6.66907146 79.8886865,8.35174756 79.99489,10.4671208 L80,10.6666667 L80,29.3333333 C79.9975952,31.4745318 78.3149191,33.2220199 76.1995458,33.3282233 L76,33.3333333 L75.1343333,33.3333333 L68.8333333,38.3745 C68.4331114,38.6949341 67.8846081,38.7575063 67.4224993,38.5354452 C67.0024004,38.3335715 66.7213566,37.9289744 66.673826,37.4718848 L66.6666667,37.3333333 L66.6666667,33.3333333 L61.3333333,33.3333333 L61.3333333,57.3333333 L66.6666667,57.3333333 L66.6666667,53.3333333 C66.6665384,52.8206389 66.9603905,52.3532825 67.4224993,52.1312215 C67.8383972,51.9313665 68.3242746,51.9620645 68.709053,52.2037991 L68.8333333,52.2921667 L75.1343333,57.3333333 L76,57.3333333 C78.1411616,57.335827 79.8885981,59.0184554 79.994882,61.133791 L80,61.3333333 L80,69.3333333 C79.9975063,71.474495 78.314878,73.2219315 76.1995423,73.3282154 L76,73.3333333 L61.3333333,73.3333333 L61.3333333,76 C61.3309285,78.1411985 59.6482524,79.8886865 57.5328792,79.99489 L57.3333333,80 L22.6666667,80 C20.5254682,79.9975952 18.7779801,78.3149191 18.6717767,76.1995458 L18.6666667,76 L18.6666667,74.6666667 L4,74.6666667 C1.8588015,74.6642619 0.111313462,72.9815858 0.00511004621,70.8662125 L0,70.6666667 L0,52 C0.00240479251,49.8588015 1.6850809,48.1113135 3.80045416,48.00511 L4,48 L4.86566667,48 L11.1666667,42.9588333 C11.5668886,42.6383993 12.1153919,42.5758271 12.5775007,42.7978881 C12.9975996,42.9997618 13.2786434,43.4043589 13.326174,43.8614486 L13.3333333,44 L13.3333333,48 L18.6666667,48 L18.6666667,27.9136667 C13.3337581,27.2430222 9.33353874,22.7082452 9.33353874,17.3333333 C9.33353874,12.054402 13.1921687,7.58586864 18.3822652,6.79260672 L18.6666667,6.753 L18.6666667,4 C18.6690715,1.8588015 20.3517476,0.111313462 22.4671208,0.00511004621 L22.6666667,0 L57.3333333,0 Z M36.3723333,18.6666667 L30.5803333,18.6666667 C29.9768058,23.3990623 26.3131211,27.1453243 21.6218224,27.8729097 L21.3333333,27.9136667 L21.3333333,48 L25.3333333,48 C27.4745318,48.0024048 29.2220199,49.6850809 29.3282233,51.8004542 L29.3333333,52 L29.3333333,70.6666667 C29.3309285,72.8078652 27.6482524,74.5553532 25.5328792,74.6615566 L25.3333333,74.6666667 L21.3333333,74.6666667 L21.3333333,76 C21.3341114,76.6927407 21.8625178,77.2618508 22.5383194,77.3270971 L22.6666667,77.3333333 L57.3333333,77.3333333 C58.026074,77.3325553 58.5951842,76.8041488 58.6604305,76.1283473 L58.6666667,76 L58.6666667,73.3333333 L54.6666667,73.3333333 C52.525505,73.3308397 50.7780685,71.6482113 50.6717846,69.5328757 L50.6666667,69.3333333 L50.6666667,66.6666667 L42.6666667,66.6666667 C42.1231782,66.666718 41.6390498,66.3377081 41.4346459,65.8435515 L41.3895,65.7166667 L37.5785,53.0128333 C34.0745744,52.0647512 31.4441061,49.1795572 30.8104773,45.6231376 L30.7635,45.3333333 L30.6666667,45.3333333 C28.4575277,45.3333333 26.6666667,43.5424723 26.6666667,41.3333333 C26.6666667,39.1241943 28.4575277,37.3333333 30.6666667,37.3333333 C30.6725951,32.4698085 34.4036846,28.4404987 39.2203097,28.0335316 L39.489,28.0146667 L36.3723333,18.6666667 Z M46.6666667,69.3333333 L46.6666667,72 L44,72 L44,69.3333333 L46.6666667,69.3333333 Z M36,69.3333333 L36,72 L33.3333333,72 L33.3333333,69.3333333 L36,69.3333333 Z M41.3333333,69.3333333 L41.3333333,72 L38.6666667,72 L38.6666667,69.3333333 L41.3333333,69.3333333 Z M10.6666667,46.7745 L6.16666667,50.3745 C5.9695605,50.5321818 5.73260845,50.6300199 5.48380999,50.6581977 L5.33333333,50.6666667 L4,50.6666667 C3.30725931,50.6674447 2.73814915,51.1958512 2.67290286,51.8716527 L2.66666667,52 L2.66666667,70.6666667 C2.66744469,71.3594074 3.19585116,71.9285175 3.87165275,71.9937638 L4,72 L25.3333333,72 C26.026074,71.999222 26.5951842,71.4708155 26.6604305,70.7950139 L26.6666667,70.6666667 L26.6666667,52 C26.6658886,51.3072593 26.1374822,50.7381492 25.4616806,50.6729029 L25.3333333,50.6666667 L12,50.6666667 C11.3069368,50.6666667 10.737379,50.1378773 10.6727703,49.4617422 L10.6666667,49.3333333 L10.6666667,46.7745 Z M69.3333333,56.1075 L69.3333333,58.6666667 C69.3333333,59.3597299 68.8045439,59.9292877 68.1284089,59.9938964 L68,60 L54.6666667,60 C53.973926,60.000778 53.4048158,60.5291845 53.3395695,61.2049861 L53.3333333,61.3333333 L53.3333333,69.3333333 C53.3341114,70.026074 53.8625178,70.5951842 54.5383194,70.6604305 L54.6666667,70.6666667 L76,70.6666667 C76.6927407,70.6658886 77.2618508,70.1374822 77.3270971,69.4616806 L77.3333333,69.3333333 L77.3333333,61.3333333 C77.3325553,60.6405926 76.8041488,60.0714825 76.1283473,60.0062362 L76,60 L74.6666667,60 C74.4142162,60.0000001 74.1680371,59.9283596 73.9561363,59.794909 L73.8333333,59.7075 L69.3333333,56.1075 Z M17.3333333,53.3333333 C18.0263965,53.3333333 18.5959544,53.8621227 18.660563,54.5382578 L18.6666667,54.6666667 L18.6666667,60 L22.6666667,60 C23.3597299,60 23.9292877,60.5287894 23.9938964,61.2049244 L24,61.3333333 L24,66.6666667 C24,67.3597299 23.4712106,67.9292877 22.7950756,67.9938964 L22.6666667,68 L6.66666667,68 C5.97360345,68 5.40404562,67.4712106 5.33943696,66.7950756 L5.33333333,66.6666667 L5.33333333,57.3333333 C5.33333333,56.6402701 5.86212274,56.0707123 6.53825777,56.0061036 L6.66666667,56 L10.6666667,56 L10.6666667,54.6666667 C10.6666667,53.9736035 11.1954561,53.4040456 11.8715911,53.339437 L12,53.3333333 L17.3333333,53.3333333 Z M70.6666667,64 C71.4030463,64 72,64.5969537 72,65.3333333 C72,66.069713 71.4030463,66.6666667 70.6666667,66.6666667 C69.930287,66.6666667 69.3333333,66.069713 69.3333333,65.3333333 C69.3333333,64.5969537 69.930287,64 70.6666667,64 Z M65.3333333,64 C66.069713,64 66.6666667,64.5969537 66.6666667,65.3333333 C66.6666667,66.069713 66.069713,66.6666667 65.3333333,66.6666667 C64.5969537,66.6666667 64,66.069713 64,65.3333333 C64,64.5969537 64.5969537,64 65.3333333,64 Z M60,64 C60.7363797,64 61.3333333,64.5969537 61.3333333,65.3333333 C61.3333333,66.069713 60.7363797,66.6666667 60,66.6666667 C59.2636203,66.6666667 58.6666667,66.069713 58.6666667,65.3333333 C58.6666667,64.5969537 59.2636203,64 60,64 Z M10.6666667,58.6666667 L8,58.6666667 L8,65.3333333 L10.6666667,65.3333333 L10.6666667,58.6666667 Z M16,56 L13.3333333,56 L13.3333333,65.3333333 L16,65.3333333 L16,56 Z M21.3333333,62.6666667 L18.6666667,62.6666667 L18.6666667,65.3333333 L21.3333333,65.3333333 L21.3333333,62.6666667 Z M29.5626667,2.66666667 L22.6666667,2.66666667 C21.973926,2.66744469 21.4048158,3.19585116 21.3395695,3.87165275 L21.3333333,4 L21.3333333,6.753 C26.0657289,7.35652754 29.811991,11.0202122 30.5395763,15.7115109 L30.5803333,16 L37.3333333,16 C37.8630602,16.000027 38.3379181,16.3129267 38.5505828,16.7892639 L38.5981667,16.9116667 L42.399,28.314 C46.4842401,29.4061932 49.3276991,33.1046171 49.3333333,37.3333333 C51.5424723,37.3333333 53.3333333,39.1241943 53.3333333,41.3333333 C53.3333333,43.4755287 51.6493649,45.2244122 49.5329737,45.328438 L49.3333333,45.3333333 L49.3333333,52 C49.3333444,52.3031088 49.2301455,52.59558 49.0431967,52.8304285 L48.9428333,52.9428333 L46.2761667,55.6095 C45.7554542,56.1302124 44.9112125,56.1302124 44.3905001,55.6094999 C43.9045018,55.1235017 43.8721019,54.3556735 44.2933003,53.8320978 L44.3905,53.7238333 L46.6666667,51.4478333 L46.6666667,50.523 C45.0990702,52.1310426 43.0056006,53.1153233 40.7747519,53.300791 L40.4551667,53.3218333 L43.6586667,64 L50.6666667,64 L50.6666667,61.3333333 C50.6691603,59.1921717 52.3517887,57.4447352 54.4671243,57.3384513 L54.6666667,57.3333333 L58.6666667,57.3333333 L58.6666667,33.3333333 L54.6666667,33.3333333 C52.5254682,33.3309285 50.7779801,31.6482524 50.6717767,29.5328792 L50.6666667,29.3333333 L50.6666667,10.6666667 C50.6690715,8.52546816 52.3517476,6.77798013 54.4671208,6.67177671 L54.6666667,6.66666667 L58.6666667,6.66666667 L58.6666667,4 C58.6658886,3.30725931 58.1374822,2.73814915 57.4616806,2.67290286 L57.3333333,2.66666667 L50.4373333,2.66666667 C50.8708014,3.89086183 50.6827583,5.24931796 49.9330453,6.30973239 C49.2274331,7.3077695 48.1070114,7.92478859 46.8949276,7.99356914 L46.6666667,8 L33.3333333,8 C32.0346616,8.00042762 30.8166677,7.37014682 30.0669547,6.30973239 C29.3172417,5.24931796 29.1291986,3.89086183 29.5626667,2.66666667 Z M40,38.1293333 C38.3226652,39.893985 36.0765048,41.0038639 33.6633913,41.2679197 L33.3333333,41.2986667 L33.3333333,44 C33.3333333,47.6818983 36.3181017,50.6666667 40,50.6666667 C43.6035601,50.6666667 46.5393397,47.8075586 46.6626351,44.234046 L46.6666667,44 L46.6666667,41.2986667 C44.1288669,41.1034092 41.7535773,39.9741965 40,38.1293333 Z M44,42.6666667 C44.7363797,42.6666667 45.3333333,43.2636203 45.3333333,44 C45.3333333,44.7363797 44.7363797,45.3333333 44,45.3333333 C43.2636203,45.3333333 42.6666667,44.7363797 42.6666667,44 C42.6666667,43.2636203 43.2636203,42.6666667 44,42.6666667 Z M36.6737552,42.8494189 C36.9789082,43.0281099 37.2005782,43.3207039 37.29,43.6628333 C37.476211,44.3752798 37.0496132,45.1037857 36.3371669,45.2899972 C35.6247205,45.4762087 34.8962143,45.0496113 34.7100024,44.3371651 C34.5237904,43.6247189 34.9503873,42.8962125 35.6628333,42.71 C36.0049626,42.6205775 36.3686022,42.670728 36.6737552,42.8494189 Z M49.3333333,40 L49.3333333,42.6666667 C50.069713,42.6666667 50.6666667,42.069713 50.6666667,41.3333333 C50.6666667,40.5969537 50.069713,40 49.3333333,40 Z M30.6666667,40 C29.930287,40 29.3333333,40.5969537 29.3333333,41.3333333 C29.3333333,42.0263965 29.8621227,42.5959544 30.5382578,42.660563 L30.6666667,42.6666667 L30.6666667,40 Z M40,30.6666667 C36.3964399,30.6666667 33.4606603,33.5257748 33.3373649,37.0992873 L33.3333333,37.3333333 L33.3333333,38.6243333 C35.5943687,38.386725 37.6317505,37.1534443 38.8906667,35.2603333 C39.1379642,34.8894598 39.5542386,34.6667008 40,34.6667008 C40.4457614,34.6667008 40.8620358,34.8894598 41.1093333,35.2603333 C42.3157947,37.0745646 44.2372009,38.2828061 46.3852422,38.5894708 L46.6666667,38.6243333 L46.6666667,37.3333333 C46.6666667,33.651435 43.6818983,30.6666667 40,30.6666667 Z M76,9.33333333 L54.6666667,9.33333333 C53.973926,9.33411135 53.4048158,9.86251782 53.3395695,10.5383194 L53.3333333,10.6666667 L53.3333333,29.3333333 C53.3341114,30.026074 53.8625178,30.5951842 54.5383194,30.6604305 L54.6666667,30.6666667 L68,30.6666667 C68.6930632,30.6666667 69.262621,31.1954561 69.3272297,31.8715911 L69.3333333,32 L69.3333333,34.5588333 L73.8333333,30.9588333 C74.0304395,30.8011516 74.2673915,30.7033135 74.51619,30.6751356 L74.6666667,30.6666667 L76,30.6666667 C76.6927407,30.6658886 77.2618508,30.1374822 77.3270971,29.4616806 L77.3333333,29.3333333 L77.3333333,10.6666667 C77.3325067,9.93062968 76.736037,9.33415998 76,9.33333333 Z M74.1951667,12.3166667 C74.4566784,12.5382003 74.6213808,12.8505447 74.6586068,13.1875738 L74.6666667,13.3333333 L74.6666667,24 C74.6666667,24.7363797 74.069713,25.3333333 73.3333333,25.3333333 L73.2234665,25.3287965 L73.1143333,25.3153333 L65.2226667,24 L64.5166667,24 L65.2648333,26.245 C65.420937,26.6983528 65.3216012,27.2006123 65.0046743,27.5604101 C64.6877473,27.920208 64.2020388,28.0821321 63.7326109,27.9844871 C63.3101257,27.8966066 62.9593875,27.6106561 62.7861816,27.2216781 L62.7351667,27.0883333 L61.7056667,24 L61.3333333,24 C58.3878147,24 56,21.6121853 56,18.6666667 C56,15.794786 58.2699163,13.4530726 61.1134937,13.3377819 L61.3333333,13.3333333 L65.2225,13.3333333 L73.1141667,12.0186667 C73.5007646,11.9546821 73.8959631,12.0636267 74.1951667,12.3166667 Z M19.6465,18.6666667 L12.1131667,18.6666667 C12.6342907,21.7586183 14.9146891,24.2605381 17.9452262,25.0652614 C20.881059,25.8448372 23.9958142,24.892209 25.993536,22.6262096 L26.1833333,22.4028333 L19.6465,18.6666667 Z M72,14.9071667 L66.6666667,15.7961667 L66.6666667,21.5371667 L72,22.4261667 L72,14.9071667 Z M64,16 L61.3333333,16 C59.8612974,16.0017449 58.6684116,17.1946307 58.6666667,18.6666667 C58.6683445,20.0820859 59.771299,21.239415 61.1647738,21.3278978 L61.3333333,21.3333333 L64,21.3333333 L64,16 Z M21.3333333,9.4465 L21.3333333,16.5595 L27.5105,20.0895 C28.329442,17.8568384 28.1126275,15.3755659 26.9188717,13.3187745 C25.7251159,11.2619831 23.6781797,9.84290794 21.3333333,9.4465 Z M18.6666667,9.4465 C15.403691,10.0039585 12.8286378,12.5058896 12.1640964,15.729704 L12.1131667,16 L18.6666667,16 L18.6666667,9.4465 Z M46.6666667,2.66666667 L33.3333333,2.66666667 C32.5969537,2.66666667 32,3.26362033 32,4 C32,4.69306322 32.5287894,5.26262105 33.2049244,5.32722971 L33.3333333,5.33333333 L46.6666667,5.33333333 C47.4030463,5.33333333 48,4.73637967 48,4 C48,3.26362033 47.4030463,2.66666667 46.6666667,2.66666667 Z" id="Combined-Shape"></path>
                </g>
            </g>
        </g>
    </g>
</svg>