<?xml version="1.0" encoding="UTF-8"?>
<svg width="152px" height="152px" viewBox="0 0 152 152" version="1.1" xmlns="http://www.w3.org/2000/svg" xmlns:xlink="http://www.w3.org/1999/xlink">
    <!-- Generator: sketchtool 58 (101010) - https://sketch.com -->
    <title>CEA9FD75-5496-4621-8164-E477735C61F5</title>
    <desc>Created with sketchtool.</desc>
    <defs>
        <circle id="path-1" cx="72" cy="72" r="72"></circle>
        <filter x="-3.8%" y="-3.1%" width="110.4%" height="110.4%" filterUnits="objectBoundingBox" id="filter-2">
            <feOffset dx="2" dy="3" in="SourceAlpha" result="shadowOffsetOuter1"></feOffset>
            <feGaussianBlur stdDeviation="2" in="shadowOffsetOuter1" result="shadowBlurOuter1"></feGaussianBlur>
            <feColorMatrix values="0 0 0 0 0.48627451   0 0 0 0 0.647058824   0 0 0 0 0.917647059  0 0 0 0.330638112 0" type="matrix" in="shadowBlurOuter1"></feColorMatrix>
        </filter>
    </defs>
    <g id="Desktop" stroke="none" stroke-width="1" fill="none" fill-rule="evenodd">
        <g id="Home" transform="translate(-646.000000, -1431.000000)">
            <g id="Plan" transform="translate(648.000000, 1432.000000)">
                <g id="Oval-Copy">
                    <use fill="black" fill-opacity="1" filter="url(#filter-2)" xlink:href="#path-1"></use>
                    <use fill="#FFFFFF" fill-rule="evenodd" xlink:href="#path-1"></use>
                </g>
                <g id="success" transform="translate(30.000000, 30.000000)" fill="#3B61C4" fill-rule="nonzero" stroke="#FFFFFF" stroke-width="1.6">
                    <path d="M66.0242462,23.2204132 L56.5817261,23.2204132 L56.5817261,15.9464264 L71.8292084,15.9464264 C71.8303375,15.9464264 71.8314667,15.9464264 71.8320312,15.9464264 C73.0294952,15.9464264 74,14.975357 74,13.7784576 C74,13.1455688 73.7295684,12.5764771 73.2971039,12.1801453 L69.0898896,7.97293084 L73.3625946,3.70079044 C73.9824981,3.0808868 74.1676788,2.14820858 73.8323212,1.33860782 C73.4969635,0.528442383 72.7065582,0 71.8297729,0 L54.4137573,0 C53.2168579,0 52.2463531,0.970504797 52.2463531,2.16796875 L52.2463531,23.2204132 L49.7695617,23.2204132 C45.3732148,23.2204132 41.7966309,26.7975616 41.7966309,31.1939087 L41.7966309,35.712204 C40.705307,35.1504517 39.469452,34.8309022 38.1596375,34.8309022 L35.8375396,34.8309022 C31.4411926,34.8309022 27.8646088,38.4074859 27.8646088,42.803833 L27.8646088,47.3226929 C26.7727203,46.7609405 25.5368652,46.441391 24.2270508,46.441391 L21.9055176,46.441391 C17.508606,46.441391 13.9320221,50.0179748 13.9320221,54.4143219 L13.9320221,58.9331817 C12.8406982,58.3708648 11.6048432,58.0513153 10.2950287,58.0513153 L7.97293084,58.0513153 C3.5765839,58.0513153 0,61.6278992 0,66.0242462 L0,71.8292084 C0,73.0266724 0.970504797,73.9971772 2.16796875,73.9971772 L71.8292084,73.9971772 C73.0266724,73.9971772 73.9971772,73.0266724 73.9971772,71.8292084 L73.9971772,31.1939087 C73.9971772,26.7975616 70.4205933,23.2204132 66.0242462,23.2204132 Z M56.5817261,4.3359375 L66.5955963,4.3359375 L64.4914246,6.44010929 C64.0843658,6.84660343 63.8562774,7.39819336 63.8562774,7.97293084 C63.8562774,8.548233 64.0843658,9.09925839 64.4914246,9.50631721 L66.5955963,11.6104889 L56.5817261,11.6104889 L56.5817261,4.3359375 Z M4.3359375,66.0242462 C4.3359375,64.0188751 5.96755974,62.3872528 7.97293084,62.3872528 L10.2950287,62.3872528 C12.3003998,62.3872528 13.9320221,64.0188751 13.9320221,66.0242462 L13.9320221,69.6618042 L4.3359375,69.6618042 L4.3359375,66.0242462 Z M18.2679596,66.0242462 L18.2679596,54.4143219 C18.2679596,52.4083862 19.8995819,50.7767638 21.904953,50.7767638 L24.2270508,50.7767638 C26.2324219,50.7767638 27.8640441,52.4083862 27.8640441,54.4143219 L27.8640441,69.6618042 L18.2679596,69.6618042 L18.2679596,66.0242462 Z M32.1999816,54.4143219 L32.1999816,42.803833 C32.1999816,40.7984619 33.8321685,39.1668397 35.8375396,39.1668397 L38.1596375,39.1668397 C40.1650086,39.1668397 41.7966309,40.7984619 41.7966309,42.803833 L41.7966309,69.6618042 L32.1999816,69.6618042 L32.1999816,54.4143219 Z M69.6612397,69.6618042 L46.1325684,69.6618042 L46.1325684,31.1939087 C46.1325684,29.1879731 47.7641906,27.5563507 49.7695617,27.5563507 L66.0242462,27.5563507 C68.0296173,27.5563507 69.6612397,29.1879731 69.6612397,31.1939087 L69.6612397,69.6618042 Z" id="Shape"></path>
                </g>
            </g>
        </g>
    </g>
</svg>